{
  "players": [
    {
      "id": 124,
      "username": "Sourabh",
      "createdAt": "1650048901",
      "details": {
        "location": {
          "lat": 0.00,
          "longitude": 0.0
        },
        "contact": {
          "email": "petfindertechsupport@gmail.com",
          "phone": "555-555-5555"
        },
        "interestedSports": [
          {
            "id": 0,
            "name": "cricket",
            "type": "outdoor",
            "playersInTeam": 11
          }
        ]
      }

    }
  ],
  "pagination": {
    "count_per_page": 20,
    "total_count": 320,
    "current_page": 1,
    "total_pages": 16,
    "_links": {}
  }
}